%YAML 1.1
%TAG !u! tag:unity3d.com,2011:
--- !u!114 &11400000
MonoBehaviour:
  m_ObjectHideFlags: 0
  m_PrefabParentObject: {fileID: 0}
  m_PrefabInternal: {fileID: 0}
  m_GameObject: {fileID: 0}
  m_Enabled: 1
  m_EditorHideFlags: 0
  m_Script: {fileID: 11500000, guid: 3d5886119a5c7b34d8872ab527ca3e1b, type: 3}
  m_Name: UnityBuildSettings
  m_EditorClassIdentifier: 
  _basicSettings:
    baseBuildFolder: Build
    buildPath: $RELEASE_TYPE/$BUILD/$PLATFORM/$ARCHITECTURE
    openFolderPostBuild: 0
  _productParameters:
    buildCounter: 13
    lastGeneratedVersion: 0.0.13.0p
    version: 0.0.$BUILD.0p
    autoGenerate: 1
  _releaseTypeList:
    releaseTypes:
    - typeName: Prototype
      bundleIndentifier: 
      productName: Roguelands 2
      developmentBuild: 0
      allowDebugging: 0
      enableHeadlessMode: 1
      customDefines: 
      sceneList:
        enabledScenes:
        - fileGUID: aba04844610ab8e4c8693a04e750e525
        - fileGUID: 2cda990e2423bbf4892e6590ba056729
        - fileGUID: 6b42826223847d84b8d788e0dd920fe0
  _platformList:
    platforms:
    - enabled: 1
      distributionList:
        distributions: []
      architectures:
      - target: 25
        name: Linux Universal
        enabled: 1
      - target: 17
        name: Linux x86
        enabled: 0
      - target: 24
        name: Linux x64
        enabled: 0
      variants: []
      platformName: Linux
      binaryNameFormat: '{0}.x86'
      dataDirNameFormat: '{0}_Data'
      targetGroup: 1
    - enabled: 1
      distributionList:
        distributions: []
      architectures:
      - target: 2
        name: OSX
        enabled: 1
      variants: []
      platformName: OSX
      binaryNameFormat: '{0}.app'
      dataDirNameFormat: '{0}.app/Contents'
      targetGroup: 1
    - enabled: 1
      distributionList:
        distributions: []
      architectures:
      - target: 5
        name: Windows x86
        enabled: 1
      - target: 19
        name: Windows x64
        enabled: 1
      variants: []
      platformName: PC
      binaryNameFormat: '{0}.exe'
      dataDirNameFormat: '{0}_Data'
      targetGroup: 1
  _projectConfigurations:
    configSet:
      _Buckets: ffffffffffffffff0000000002000000ffffffffffffffffffffffff07000000ffffffffffffffffffffffffffffffff040000000600000001000000ffffffff05000000
      _HashCodes: 5799577587215a0b4c8929156784c957ca100e678a100e67203efe270245c153000000000000000000000000000000000000000000000000000000000000000000000000
      _Next: ffffffffffffffffffffffffffffffffffffffffffffffff03000000ffffffff000000000000000000000000000000000000000000000000000000000000000000000000
      _Count: 8
      _Version: 8
      _FreeList: -1
      _FreeCount: 0
      _Keys:
      - Prototype/Linux/Linux Universal
      - Prototype/Linux
      - Prototype/OSX/OSX
      - Prototype/OSX
      - Prototype/PC/Windows x86
      - Prototype/PC/Windows x64
      - Prototype/PC
      - Prototype
      - 
      - 
      - 
      - 
      - 
      - 
      - 
      - 
      - 
      _Values:
      - enabled: 1
        childKeys: []
      - enabled: 1
        childKeys:
        - Prototype/Linux/Linux Universal
      - enabled: 1
        childKeys: []
      - enabled: 1
        childKeys:
        - Prototype/OSX/OSX
      - enabled: 1
        childKeys: []
      - enabled: 1
        childKeys: []
      - enabled: 1
        childKeys:
        - Prototype/PC/Windows x86
        - Prototype/PC/Windows x64
      - enabled: 1
        childKeys:
        - Prototype/Linux
        - Prototype/OSX
        - Prototype/PC
      - enabled: 1
        childKeys: []
      - enabled: 1
        childKeys: []
      - enabled: 1
        childKeys: []
      - enabled: 1
        childKeys: []
      - enabled: 1
        childKeys: []
      - enabled: 1
        childKeys: []
      - enabled: 1
        childKeys: []
      - enabled: 1
        childKeys: []
      - enabled: 1
        childKeys: []
    showViewOptions: 0
    showConfigs: 0
    showBuildInfo: 0
    hideDisabled: 0
    treeView: 0
    selectedKeyChain: Prototype/PC/Windows x64
  _preBuildActions:
    buildActions: []
  _postBuildActions:
    buildActions:
    - {fileID: 114007871874100008}
    - {fileID: 114974545706490646}
--- !u!114 &114007871874100008
MonoBehaviour:
  m_ObjectHideFlags: 0
  m_PrefabParentObject: {fileID: 0}
  m_PrefabInternal: {fileID: 0}
  m_GameObject: {fileID: 0}
  m_Enabled: 1
  m_EditorHideFlags: 0
  m_Script: {fileID: 11500000, guid: 97d88f7d353534a4fbdeb11196057db7, type: 3}
  m_Name: UploadItch
  m_EditorClassIdentifier: 
  actionType: 1
  actionName: UploadItch
  note: 
  actionEnabled: 1
  filter:
    condition: 0
    clauses: []
  pathToButlerExe: bin\butler.exe
  nameOfItchUser: Nolic0321
  nameOfItchGame: roguelands-the-magicite-war-demo
  useGeneratedBuildVersion: 1
  showUploadProgress: 1
  itchChannelOverride: 
--- !u!114 &114974545706490646
MonoBehaviour:
  m_ObjectHideFlags: 0
  m_PrefabParentObject: {fileID: 0}
  m_PrefabInternal: {fileID: 0}
  m_GameObject: {fileID: 0}
  m_Enabled: 1
  m_EditorHideFlags: 0
  m_Script: {fileID: 11500000, guid: ab85f23b640cc654dbcaff8ec59e443e, type: 3}
  m_Name: ScriptRunner
  m_EditorClassIdentifier: 
  actionType: 0
  actionName: ScriptRunner
  note: 
  actionEnabled: 1
  filter:
    condition: 0
    clauses: []
  scriptPath: bin\DiscordConsole\ConnectBot.bat
  scriptArguments: 
